<svg id="Group_922" data-name="Group 922" xmlns="http://www.w3.org/2000/svg" width="21.288" height="23.585" viewBox="0 0 21.288 23.585">
  <g id="Ellipse_1" data-name="Ellipse 1" transform="matrix(0.629, 0.777, -0.777, 0.629, 11.599, 0)" fill="none" stroke="#fff" stroke-width="1.5">
    <ellipse cx="7.462" cy="7.462" rx="7.462" ry="7.462" stroke="none"/>
    <ellipse cx="7.462" cy="7.462" rx="6.712" ry="6.712" fill="none"/>
  </g>
  <line id="Line_1" data-name="Line 1" x2="5.112" y2="6.514" transform="translate(15.123 16.018)" fill="none" stroke="#fff" stroke-linecap="round" stroke-width="1.5"/>
</svg>
