<svg xmlns="http://www.w3.org/2000/svg" width="267.53" height="83.725" viewBox="0 0 267.53 83.725">
  <g id="Group_13960" data-name="Group 13960" transform="translate(-461 -132.948)">
    <g id="Group_13089" data-name="Group 13089" transform="translate(334.597 -115.51)">
      <path id="Path_1364" data-name="Path 1364" d="M133.423,251.222h16.2V302.7h-16.2Z" transform="translate(53.739 21.16)" fill="#001589"/>
      <path id="Path_1365" data-name="Path 1365" d="M136.189,248.674h22.02l31.264,51.1h.208v-51.1h16.2v73.537H184.694L152.6,269.863h-.208v52.349h-16.2Z" transform="translate(74.914 1.654)" fill="#001589"/>
      <path id="Path_1366" data-name="Path 1366" d="M145.819,248.674h16.2v73.537h-16.2Z" transform="translate(148.637 1.654)" fill="#d0db00"/>
      <path id="Path_1367" data-name="Path 1367" d="M203.365,248.673H167.277v.011H126.4v73.538h16.2V293.554h30.641V278.6H142.607V263.64h33.134v-.03h27.623Z" transform="translate(0 1.643)" fill="#001589"/>
      <g id="Group_13088" data-name="Group 13088" transform="translate(314.58 248.458)">
        <path id="Path_1368" data-name="Path 1368" d="M163.046,254.7H154.72c-1.506,0-2.674,1.532-2.77,3.428l-.026-.009v22.79c.069,1.939,1.272,3.505,2.8,3.505h8.327c1.567,0,2.83-1.627,2.83-3.635V258.1l-.06.017C165.712,256.221,164.552,254.7,163.046,254.7Z" transform="translate(-119.206 -200.688)" fill="#d0db00"/>
        <path id="Path_1369" data-name="Path 1369" d="M224.537,271.1a35.08,35.08,0,0,0-8.257-12.2,36.378,36.378,0,0,0-12.568-7.738,48.1,48.1,0,0,0-31.783,0,36.378,36.378,0,0,0-12.568,7.738,35.079,35.079,0,0,0-8.257,12.2,44.7,44.7,0,0,0,0,31.991,35.082,35.082,0,0,0,8.257,12.2,36.356,36.356,0,0,0,12.265,7.591V304.442c-.13-.138-.294-.234-.424-.363a21.767,21.767,0,0,1-4.622-7.478,28.7,28.7,0,0,1,0-18.956,21.672,21.672,0,0,1,4.622-7.53,21.1,21.1,0,0,1,7.219-4.933,25.9,25.9,0,0,1,18.8,0,21.1,21.1,0,0,1,7.219,4.933,21.673,21.673,0,0,1,4.622,7.53,28.706,28.706,0,0,1,0,18.956,21.768,21.768,0,0,1-4.622,7.478,3.984,3.984,0,0,1-.363.3v18.471a36.23,36.23,0,0,0,12.2-7.556,35.083,35.083,0,0,0,8.257-12.2,44.7,44.7,0,0,0,0-31.991Z" transform="translate(-148.144 -248.458)" fill="#d0db00"/>
      </g>
    </g>
  </g>
</svg>
